module aff-test-framework

go 1.18

require (
	github.com/bxcodec/faker/v3 v3.8.0 // indirect
	github.com/dailymotion/allure-go v0.7.0 // indirect
	github.com/fatih/camelcase v1.0.0 // indirect
	github.com/fsnotify/fsnotify v1.5.1 // indirect
	github.com/golang/protobuf v1.5.2 // indirect
	github.com/gopherjs/gopherjs v1.17.2 // indirect
	github.com/hashicorp/hcl v1.0.0 // indirect
	github.com/jtolds/gls v4.20.0+incompatible // indirect
	github.com/magiconair/properties v1.8.6 // indirect
	github.com/mitchellh/mapstructure v1.4.3 // indirect
	github.com/onsi/gomega v1.19.0 // indirect
	github.com/pelletier/go-toml v1.9.4 // indirect
	github.com/pelletier/go-toml/v2 v2.0.0-beta.8 // indirect
	github.com/pkg/errors v0.9.1 // indirect
	github.com/spf13/afero v1.8.2 // indirect
	github.com/spf13/cast v1.4.1 // indirect
	github.com/spf13/jwalterweatherman v1.1.0 // indirect
	github.com/spf13/pflag v1.0.5 // indirect
	github.com/spf13/viper v1.11.0 // indirect
	github.com/subosito/gotenv v1.2.0 // indirect
	golang.org/x/net v0.0.0-20220412020605-290c469a71a5 // indirect
	golang.org/x/sys v0.0.0-20220412211240-33da011f77ad // indirect
	golang.org/x/text v0.3.7 // indirect
	google.golang.org/protobuf v1.28.0 // indirect
	gopkg.in/ini.v1 v1.66.4 // indirect
	gopkg.in/yaml.v2 v2.4.0 // indirect
	gopkg.in/yaml.v3 v3.0.0-20210107192922-496545a6307b // indirect
)
